<?xml version="1.0" encoding="UTF-8" standalone="no"?>
<!-- Uploaded to: SVG Repo, www.svgrepo.com, Generator: SVG Repo Mixer Tools -->

<svg
   xmlns:dc="http://purl.org/dc/elements/1.1/"
   xmlns:cc="http://creativecommons.org/ns#"
   xmlns:rdf="http://www.w3.org/1999/02/22-rdf-syntax-ns#"
   xmlns:svg="http://www.w3.org/2000/svg"
   xmlns="http://www.w3.org/2000/svg"
   xmlns:sodipodi="http://sodipodi.sourceforge.net/DTD/sodipodi-0.dtd"
   xmlns:inkscape="http://www.inkscape.org/namespaces/inkscape"
   width="1818.2684"
   height="821.54071"
   viewBox="0 0 36.365369 16.430814"
   version="1.1"
   id="svg4"
   sodipodi:docname="decoupe_denominateur.svg"
   inkscape:export-filename="/home/arnaud/fracatux/assets/images/decoupe_denominateur.png"
   inkscape:export-xdpi="4.2062693"
   inkscape:export-ydpi="4.2062693"
   inkscape:version="0.92.5 (2060ec1f9f, 2020-04-08)">
  <metadata
     id="metadata10">
    <rdf:RDF>
      <cc:Work
         rdf:about="">
        <dc:format>image/svg+xml</dc:format>
        <dc:type
           rdf:resource="http://purl.org/dc/dcmitype/StillImage" />
        <dc:title />
      </cc:Work>
    </rdf:RDF>
  </metadata>
  <defs
     id="defs8" />
  <sodipodi:namedview
     pagecolor="#ffffff"
     bordercolor="#666666"
     borderopacity="1"
     objecttolerance="10"
     gridtolerance="10"
     guidetolerance="10"
     inkscape:pageopacity="0"
     inkscape:pageshadow="2"
     inkscape:window-width="1878"
     inkscape:window-height="1031"
     id="namedview6"
     showgrid="false"
     fit-margin-top="0"
     fit-margin-left="0"
     fit-margin-right="0"
     fit-margin-bottom="0"
     inkscape:zoom="0.1475"
     inkscape:cx="-2106.8015"
     inkscape:cy="-626.66564"
     inkscape:window-x="42"
     inkscape:window-y="25"
     inkscape:window-maximized="1"
     inkscape:current-layer="svg4" />
  <rect
     style="opacity:1;vector-effect:none;fill:#b3b3b3;fill-opacity:1;stroke:none;stroke-width:0.78935724;stroke-linecap:butt;stroke-linejoin:bevel;stroke-miterlimit:4;stroke-dasharray:none;stroke-dashoffset:0;stroke-opacity:1"
     id="rect2015"
     width="28.038408"
     height="36.973385"
     x="-0.81356168"
     y="-0.95901597" />
  <rect
     style="opacity:1;vector-effect:none;fill:#ecea25;fill-opacity:1;stroke:#000000;stroke-width:0.59381998;stroke-linecap:butt;stroke-linejoin:bevel;stroke-miterlimit:4;stroke-dasharray:none;stroke-dashoffset:0;stroke-opacity:1"
     id="rect997-8-3"
     width="25.138098"
     height="15.431205"
     x="0.62527698"
     y="0.33533543" />
  <g
     id="g995-2-6"
     transform="translate(47.60796,-19.034075)">
    <flowRoot
       transform="matrix(0.59279866,0,0,0.5082551,-121.72139,37.227943)"
       style="font-style:normal;font-variant:normal;font-weight:normal;font-stretch:normal;font-size:16px;line-height:1.25;font-family:'Noto Sans Arabic';-inkscape-font-specification:'Noto Sans Arabic';letter-spacing:0px;word-spacing:0px;fill:#000000;fill-opacity:1;stroke:none"
       id="flowRoot823-8-8-6-7"
       xml:space="preserve"><flowRegion
         style="font-style:normal;font-variant:normal;font-weight:normal;font-stretch:normal;font-family:'Noto Sans Arabic';-inkscape-font-specification:'Noto Sans Arabic'"
         id="flowRegion825-0-3-9-5"><rect
           style="font-style:normal;font-variant:normal;font-weight:normal;font-stretch:normal;font-family:'Noto Sans Arabic';-inkscape-font-specification:'Noto Sans Arabic'"
           y="-33.940678"
           x="142.37288"
           height="379.66101"
           width="369.49152"
           id="rect827-4-5-10-3" /></flowRegion><flowPara
         id="flowPara829-1-6-4-5">1</flowPara></flowRoot>    <path
       inkscape:connector-curvature="0"
       id="path843-1-5-2-6"
       d="m -37.510375,27.164705 c 5.832402,0 5.832402,0 5.832402,0"
       style="fill:none;stroke:#000000;stroke-width:0.58901119;stroke-linecap:butt;stroke-linejoin:miter;stroke-miterlimit:4;stroke-dasharray:none;stroke-opacity:1" />
    <flowRoot
       transform="matrix(0.5573797,0,0,0.53040316,-116.44563,45.40446)"
       style="font-style:normal;font-variant:normal;font-weight:normal;font-stretch:normal;font-size:16px;line-height:1.25;font-family:'Noto Sans Arabic';-inkscape-font-specification:'Noto Sans Arabic';letter-spacing:0px;word-spacing:0px;fill:#000000;fill-opacity:1;stroke:none"
       id="flowRoot823-6-3-9-7-2"
       xml:space="preserve"><flowRegion
         style="font-style:normal;font-variant:normal;font-weight:normal;font-stretch:normal;font-family:'Noto Sans Arabic';-inkscape-font-specification:'Noto Sans Arabic'"
         id="flowRegion825-3-5-9-4-9"><rect
           style="font-style:normal;font-variant:normal;font-weight:normal;font-stretch:normal;font-family:'Noto Sans Arabic';-inkscape-font-specification:'Noto Sans Arabic'"
           y="-33.940678"
           x="142.37288"
           height="379.66101"
           width="369.49152"
           id="rect827-5-9-0-03-1" /></flowRegion><flowPara
         id="flowPara829-0-3-7-2-2">2</flowPara></flowRoot>  </g>
  <g
     id="g1090"
     transform="translate(0.16,-0.04)">
    <rect
       y="19.14439"
       x="-0.078118525"
       height="15.700477"
       width="12.785222"
       id="rect997-1"
       style="opacity:1;vector-effect:none;fill:#fdf9ff;fill-opacity:1;stroke:#000000;stroke-width:0.73033696;stroke-linecap:butt;stroke-linejoin:bevel;stroke-miterlimit:4;stroke-dasharray:none;stroke-dashoffset:0;stroke-opacity:1" />
    <flowRoot
       transform="matrix(0.59279866,0,0,0.5082551,-81.228907,37.266991)"
       style="font-style:normal;font-variant:normal;font-weight:normal;font-stretch:normal;font-size:16px;line-height:1.25;font-family:'Noto Sans Arabic';-inkscape-font-specification:'Noto Sans Arabic';letter-spacing:0px;word-spacing:0px;fill:#000000;fill-opacity:1;stroke:none"
       id="flowRoot823-8-8-6-3"
       xml:space="preserve"><flowRegion
         style="font-style:normal;font-variant:normal;font-weight:normal;font-stretch:normal;font-family:'Noto Sans Arabic';-inkscape-font-specification:'Noto Sans Arabic'"
         id="flowRegion825-0-3-9-6"><rect
           style="font-style:normal;font-variant:normal;font-weight:normal;font-stretch:normal;font-family:'Noto Sans Arabic';-inkscape-font-specification:'Noto Sans Arabic'"
           y="-33.940678"
           x="142.37288"
           height="379.66101"
           width="369.49152"
           id="rect827-4-5-10-7" /></flowRegion><flowPara
         id="flowPara829-1-6-4-53">1</flowPara></flowRoot>    <path
       inkscape:connector-curvature="0"
       id="path843-1-5-2-5"
       d="m 3.1427829,27.135956 c 5.832401,0 5.832401,0 5.832401,0"
       style="fill:none;stroke:#000000;stroke-width:0.58901119;stroke-linecap:butt;stroke-linejoin:miter;stroke-miterlimit:4;stroke-dasharray:none;stroke-opacity:1" />
    <flowRoot
       transform="matrix(0.5573797,0,0,0.53040316,-77.580267,45.443509)"
       style="font-style:normal;font-variant:normal;font-weight:normal;font-stretch:normal;font-size:16px;line-height:1.25;font-family:'Noto Sans Arabic';-inkscape-font-specification:'Noto Sans Arabic';letter-spacing:0px;word-spacing:0px;fill:#000000;fill-opacity:1;stroke:none"
       id="flowRoot823-6-3-9-7-6"
       xml:space="preserve"><flowRegion
         style="font-style:normal;font-variant:normal;font-weight:normal;font-stretch:normal;font-family:'Noto Sans Arabic';-inkscape-font-specification:'Noto Sans Arabic'"
         id="flowRegion825-3-5-9-4-2"><rect
           style="font-style:normal;font-variant:normal;font-weight:normal;font-stretch:normal;font-family:'Noto Sans Arabic';-inkscape-font-specification:'Noto Sans Arabic'"
           y="-33.940678"
           x="142.37288"
           height="379.66101"
           width="369.49152"
           id="rect827-5-9-0-03-9" /></flowRegion><flowPara
         style="letter-spacing:-3.30058241px;word-spacing:-0.0011035px"
         id="flowPara829-0-3-7-2-1">  4</flowPara></flowRoot>  </g>
  <g
     id="g919"
     transform="rotate(137.31703,-9.9031523,12.553575)">
    <g
       transform="matrix(-0.07872399,-0.00982467,0.00816121,-0.09476991,-13.324177,4.0387617)"
       id="Layer_2"
       data-name="Layer 2">
      <g
         id="Layer_1-2"
         data-name="Layer 1">
        <path
           inkscape:connector-curvature="0"
           d="M 79.34,22.4 A 35.81,35.81 0 0 0 89.89,21 c 14.44,-3.8 29.16,-5.94 43.94,-7.75 6.81,-0.83 10.07,1.75 11.64,8.3 2.16,9 2.07,18.11 1.23,27.28 -0.37,4 -2.36,6.44 -6.08,7.28 -4.45,1 -9,1.7 -13.48,2.45 -12.12,2 -24.25,4 -36.37,6 a 12.33,12.33 0 0 0 -2.46,1 c -3.4,7 1.11,14.83 -1.93,21.79 -4.06,3.45 -8.33,3.51 -12.87,1.3 -3.09,-1.5 -6.32,-2.7 -9.37,-4.27 A 441.69,441.69 0 0 0 14.7,62.48 117.42,117.42 0 0 1 2.28,56.71 a 4,4 0 0 1 -2,-5.12 c 0.94,-3 1.9,-6 4.8,-7.88 2.38,-1.57 4.46,-3.57 6.74,-5.28 9.39,-7.06 18.66,-14.26 28.23,-21 C 47.72,11.93 55.77,7 63.69,1.83 A 13.93,13.93 0 0 1 66.84,0.5 c 3.72,-1.25 6.91,-0.16 8.57,3.5 a 37.9,37.9 0 0 1 2.34,8.19 c 0.68,3.26 1.05,6.62 1.59,10.21 z M 67.2,12.82 a 18.83,18.83 0 0 0 -9,3.8 C 52.7,20.71 47.11,24.69 41.57,28.74 33.06,35 24.51,41.2 16,47.53 14.74,48.47 13.87,49.94 12.56,51.46 23.8,55.89 34.45,60 45,64.32 55.55,68.64 65.09,74.94 76.55,78.93 a 34.36,34.36 0 0 0 0.8,-5.41 c -0.08,-2.85 -0.61,-5.69 -0.73,-8.55 -0.2,-5.19 0.91,-6.85 5.8,-7.83 Q 103,53 123.7,49.23 c 4.17,-0.78 8.41,-1.21 12.43,-3.24 1,-7.62 -0.69,-14.79 -2.17,-22 a 13.24,13.24 0 0 0 -2.85,-0.25 C 115,26.44 98.94,29.1 82.9,32.05 a 11.62,11.62 0 0 1 -9.63,-2 A 12,12 0 0 1 68,20.69 c -0.22,-2.48 -0.51,-4.96 -0.8,-7.87 z"
           id="path1264" />
        <path
           style="fill:#ffffff"
           inkscape:connector-curvature="0"
           class="cls-1"
           d="m 67.2,12.82 c 0.29,2.91 0.58,5.39 0.77,7.87 a 12,12 0 0 0 5.3,9.31 11.62,11.62 0 0 0 9.63,2 c 16,-2.95 32.13,-5.61 48.21,-8.34 A 13.24,13.24 0 0 1 134,24 c 1.48,7.24 3.16,14.41 2.17,22 -4,2 -8.26,2.46 -12.43,3.24 Q 103,53.07 82.42,57.14 c -4.89,1 -6,2.64 -5.8,7.83 0.12,2.86 0.65,5.7 0.73,8.55 a 34.36,34.36 0 0 1 -0.8,5.41 C 65.09,74.93 55.55,68.59 45.03,64.32 34.51,60.05 23.8,55.89 12.59,51.46 c 1.31,-1.52 2.18,-3 3.44,-3.93 C 24.51,41.2 33.06,35 41.6,28.74 c 5.54,-4 11.13,-8 16.63,-12.12 a 18.83,18.83 0 0 1 8.97,-3.8 z"
           id="path1266" />
      </g>
    </g>
    <path
       inkscape:connector-curvature="0"
       id="path1287"
       d="m -18.713144,-4.1900485 c -0.178954,0.5691456 -0.04266,1.1876746 -0.207958,1.756356 -0.131615,0.2704162 -0.497741,0.206497 -0.740362,0.2696808 -1.2361,0.1692306 -2.485134,0.227122 -3.719774,0.403997 -0.161309,0.014378 -0.335193,0.1120616 -0.325021,0.2967936 -0.02697,0.6100564 -0.04847,1.227272 0.02145,1.834812 0.04548,0.214865 0.333291,0.095855 0.480601,0.1156646 1.252326,-0.06573 2.49994,-0.2244568 3.751523,-0.2801904 0.445151,-0.00708 0.781278,0.4083912 0.891221,0.8034294 0.05401,0.3840122 -0.0018,0.7970816 0.06025,1.1671086 0.533649,-0.04225 0.919266,-0.45775 1.355847,-0.7182394 0.982345,-0.6821888 1.966387,-1.3639956 2.929378,-2.072687 0.09443,-0.1059622 0.285166,-0.1972066 0.293298,-0.348375 -0.576978,-0.4220668 -1.215127,-0.7561068 -1.804727,-1.1615536 -0.904204,-0.5658152 -1.736944,-1.230988 -2.605098,-1.8479804 -0.125797,-0.063304 -0.250611,-0.2018252 -0.380628,-0.2188162 z"
       style="opacity:1;vector-effect:none;fill:#ff0000;fill-opacity:1;stroke:none;stroke-width:1.18983042;stroke-linecap:butt;stroke-linejoin:bevel;stroke-miterlimit:4;stroke-dasharray:none;stroke-dashoffset:0;stroke-opacity:1" />
  </g>
  <flowRoot
     xml:space="preserve"
     id="flowRoot1030"
     style="fill:black;fill-opacity:1;stroke:none;font-family:'Liberation Sans Narrow';font-style:normal;font-weight:normal;font-size:16px;line-height:1.25;letter-spacing:0px;word-spacing:0px;-inkscape-font-specification:'Liberation Sans Narrow';font-stretch:normal;font-variant:normal"><flowRegion
       id="flowRegion1032"><rect
         id="rect1034"
         width="673.41962"
         height="1037.605"
         x="-172.88136"
         y="905.96967" /></flowRegion><flowPara
       id="flowPara1036" /></flowRoot>  <g
     transform="translate(13.669172,-0.00579046)"
     id="g1090-3">
    <rect
       y="19.14439"
       x="-0.078118525"
       height="15.700477"
       width="12.785222"
       id="rect997-1-6"
       style="opacity:1;vector-effect:none;fill:#fdf9ff;fill-opacity:1;stroke:#000000;stroke-width:0.73033696;stroke-linecap:butt;stroke-linejoin:bevel;stroke-miterlimit:4;stroke-dasharray:none;stroke-dashoffset:0;stroke-opacity:1" />
    <flowRoot
       transform="matrix(0.59279866,0,0,0.5082551,-81.228907,37.266991)"
       style="font-style:normal;font-variant:normal;font-weight:normal;font-stretch:normal;font-size:16px;line-height:1.25;font-family:'Noto Sans Arabic';-inkscape-font-specification:'Noto Sans Arabic';letter-spacing:0px;word-spacing:0px;fill:#000000;fill-opacity:1;stroke:none"
       id="flowRoot823-8-8-6-3-1"
       xml:space="preserve"><flowRegion
         style="font-style:normal;font-variant:normal;font-weight:normal;font-stretch:normal;font-family:'Noto Sans Arabic';-inkscape-font-specification:'Noto Sans Arabic'"
         id="flowRegion825-0-3-9-6-2"><rect
           style="font-style:normal;font-variant:normal;font-weight:normal;font-stretch:normal;font-family:'Noto Sans Arabic';-inkscape-font-specification:'Noto Sans Arabic'"
           y="-33.940678"
           x="142.37288"
           height="379.66101"
           width="369.49152"
           id="rect827-4-5-10-7-9" /></flowRegion><flowPara
         id="flowPara829-1-6-4-53-3">1</flowPara></flowRoot>    <path
       inkscape:connector-curvature="0"
       id="path843-1-5-2-5-1"
       d="m 3.1427829,27.135956 c 5.832401,0 5.832401,0 5.832401,0"
       style="fill:none;stroke:#000000;stroke-width:0.58901119;stroke-linecap:butt;stroke-linejoin:miter;stroke-miterlimit:4;stroke-dasharray:none;stroke-opacity:1" />
    <flowRoot
       transform="matrix(0.5573797,0,0,0.53040316,-77.580267,45.443509)"
       style="font-style:normal;font-variant:normal;font-weight:normal;font-stretch:normal;font-size:16px;line-height:1.25;font-family:'Noto Sans Arabic';-inkscape-font-specification:'Noto Sans Arabic';letter-spacing:0px;word-spacing:0px;fill:#000000;fill-opacity:1;stroke:none"
       id="flowRoot823-6-3-9-7-6-9"
       xml:space="preserve"><flowRegion
         style="font-style:normal;font-variant:normal;font-weight:normal;font-stretch:normal;font-family:'Noto Sans Arabic';-inkscape-font-specification:'Noto Sans Arabic'"
         id="flowRegion825-3-5-9-4-2-4"><rect
           style="font-style:normal;font-variant:normal;font-weight:normal;font-stretch:normal;font-family:'Noto Sans Arabic';-inkscape-font-specification:'Noto Sans Arabic'"
           y="-33.940678"
           x="142.37288"
           height="379.66101"
           width="369.49152"
           id="rect827-5-9-0-03-9-7" /></flowRegion><flowPara
         style="letter-spacing:-3.30058241px;word-spacing:-0.0011035px"
         id="flowPara829-0-3-7-2-1-8">  4</flowPara></flowRoot>  </g>
  <g
     id="g919-7"
     transform="matrix(0.72378619,0.69002404,0.69002392,-0.72378631,35.187783,28.84881)">
    <g
       transform="matrix(-0.07872399,-0.00982467,0.00816121,-0.09476991,-13.324177,4.0387617)"
       id="Layer_2-0"
       data-name="Layer 2">
      <g
         id="Layer_1-2-9"
         data-name="Layer 1">
        <path
           inkscape:connector-curvature="0"
           d="M 79.34,22.4 A 35.81,35.81 0 0 0 89.89,21 c 14.44,-3.8 29.16,-5.94 43.94,-7.75 6.81,-0.83 10.07,1.75 11.64,8.3 2.16,9 2.07,18.11 1.23,27.28 -0.37,4 -2.36,6.44 -6.08,7.28 -4.45,1 -9,1.7 -13.48,2.45 -12.12,2 -24.25,4 -36.37,6 a 12.33,12.33 0 0 0 -2.46,1 c -3.4,7 1.11,14.83 -1.93,21.79 -4.06,3.45 -8.33,3.51 -12.87,1.3 -3.09,-1.5 -6.32,-2.7 -9.37,-4.27 A 441.69,441.69 0 0 0 14.7,62.48 117.42,117.42 0 0 1 2.28,56.71 a 4,4 0 0 1 -2,-5.12 c 0.94,-3 1.9,-6 4.8,-7.88 2.38,-1.57 4.46,-3.57 6.74,-5.28 9.39,-7.06 18.66,-14.26 28.23,-21 C 47.72,11.93 55.77,7 63.69,1.83 A 13.93,13.93 0 0 1 66.84,0.5 c 3.72,-1.25 6.91,-0.16 8.57,3.5 a 37.9,37.9 0 0 1 2.34,8.19 c 0.68,3.26 1.05,6.62 1.59,10.21 z M 67.2,12.82 a 18.83,18.83 0 0 0 -9,3.8 C 52.7,20.71 47.11,24.69 41.57,28.74 33.06,35 24.51,41.2 16,47.53 14.74,48.47 13.87,49.94 12.56,51.46 23.8,55.89 34.45,60 45,64.32 55.55,68.64 65.09,74.94 76.55,78.93 a 34.36,34.36 0 0 0 0.8,-5.41 c -0.08,-2.85 -0.61,-5.69 -0.73,-8.55 -0.2,-5.19 0.91,-6.85 5.8,-7.83 Q 103,53 123.7,49.23 c 4.17,-0.78 8.41,-1.21 12.43,-3.24 1,-7.62 -0.69,-14.79 -2.17,-22 a 13.24,13.24 0 0 0 -2.85,-0.25 C 115,26.44 98.94,29.1 82.9,32.05 a 11.62,11.62 0 0 1 -9.63,-2 A 12,12 0 0 1 68,20.69 c -0.22,-2.48 -0.51,-4.96 -0.8,-7.87 z"
           id="path1264-3" />
        <path
           style="fill:#ffffff"
           inkscape:connector-curvature="0"
           class="cls-1"
           d="m 67.2,12.82 c 0.29,2.91 0.58,5.39 0.77,7.87 a 12,12 0 0 0 5.3,9.31 11.62,11.62 0 0 0 9.63,2 c 16,-2.95 32.13,-5.61 48.21,-8.34 A 13.24,13.24 0 0 1 134,24 c 1.48,7.24 3.16,14.41 2.17,22 -4,2 -8.26,2.46 -12.43,3.24 Q 103,53.07 82.42,57.14 c -4.89,1 -6,2.64 -5.8,7.83 0.12,2.86 0.65,5.7 0.73,8.55 a 34.36,34.36 0 0 1 -0.8,5.41 C 65.09,74.93 55.55,68.59 45.03,64.32 34.51,60.05 23.8,55.89 12.59,51.46 c 1.31,-1.52 2.18,-3 3.44,-3.93 C 24.51,41.2 33.06,35 41.6,28.74 c 5.54,-4 11.13,-8 16.63,-12.12 a 18.83,18.83 0 0 1 8.97,-3.8 z"
           id="path1266-6" />
      </g>
    </g>
    <path
       inkscape:connector-curvature="0"
       id="path1287-0"
       d="m -18.713144,-4.1900485 c -0.178954,0.5691456 -0.04266,1.1876746 -0.207958,1.756356 -0.131615,0.2704162 -0.497741,0.206497 -0.740362,0.2696808 -1.2361,0.1692306 -2.485134,0.227122 -3.719774,0.403997 -0.161309,0.014378 -0.335193,0.1120616 -0.325021,0.2967936 -0.02697,0.6100564 -0.04847,1.227272 0.02145,1.834812 0.04548,0.214865 0.333291,0.095855 0.480601,0.1156646 1.252326,-0.06573 2.49994,-0.2244568 3.751523,-0.2801904 0.445151,-0.00708 0.781278,0.4083912 0.891221,0.8034294 0.05401,0.3840122 -0.0018,0.7970816 0.06025,1.1671086 0.533649,-0.04225 0.919266,-0.45775 1.355847,-0.7182394 0.982345,-0.6821888 1.966387,-1.3639956 2.929378,-2.072687 0.09443,-0.1059622 0.285166,-0.1972066 0.293298,-0.348375 -0.576978,-0.4220668 -1.215127,-0.7561068 -1.804727,-1.1615536 -0.904204,-0.5658152 -1.736944,-1.230988 -2.605098,-1.8479804 -0.125797,-0.063304 -0.250611,-0.2018252 -0.380628,-0.2188162 z"
       style="opacity:1;vector-effect:none;fill:#ff0000;fill-opacity:1;stroke:none;stroke-width:1.18983042;stroke-linecap:butt;stroke-linejoin:bevel;stroke-miterlimit:4;stroke-dasharray:none;stroke-dashoffset:0;stroke-opacity:1" />
  </g>
  <flowRoot
     xml:space="preserve"
     id="flowRoot864"
     style="fill:black;fill-opacity:1;stroke:none;font-family:'Liberation Sans Narrow';font-style:normal;font-weight:normal;font-size:16px;line-height:1.25;letter-spacing:0px;word-spacing:0px;-inkscape-font-specification:'Liberation Sans Narrow';font-stretch:normal;font-variant:normal"><flowRegion
       id="flowRegion866"><rect
         id="rect868"
         width="6.7796612"
         height="20.338984"
         x="-840.67798"
         y="1180.8628" /></flowRegion><flowPara
       id="flowPara870"></flowPara></flowRoot></svg>
